%YAML 1.1
%TAG !u! tag:unity3d.com,2011:
--- !u!1045 &1
EditorBuildSettings:
  m_ObjectHideFlags: 0
  serializedVersion: 2
  m_Scenes:
  - enabled: 1
    path: Assets/Game/Scenes/InitLaunch.unity
    guid: 08d6f2914d9b33c4a82f89c5c7670445
  - enabled: 1
    path: Assets/Game/Scenes/MainMenuPhoton.unity
    guid: db7b2a375c0633f4186446751b705f6c
  - enabled: 1
    path: Assets/Game/Scenes/TeenPattiPhoton.unity
    guid: 2b0455dc42804a143a81a627f4510b96
